MTBA: 20.000000
R2C: 1.000000:
R2C: 5.000000:
R2C: 9.571429:
R2C: 1.000000:
MTBA: 20.000000
R2C: 1.000000:
R2C: 6.470588:
R2C: 12.485294:
R2C: 1.294118:
MTBA: 20.000000
R2C: 1.000000:
R2C: 6.962025:
R2C: 13.443038:
R2C: 1.392405:
MTBA: 20.000000
R2C: 0.650300:
R2C: 7.278481:
R2C: 13.860759:
R2C: 1.455696:
MTBA: 20.000000
R2C: 0.638038:
R2C: 11.835443:
R2C: 22.721519:
R2C: 2.367089:
MTBA: 5.000000
R2C: 0.513296:
R2C: 35.530035:
R2C: 68.696113:
R2C: 7.077739:
MTBA: 5.000000
R2C: 0.618674:
R2C: 27.500000:
R2C: 54.625000:
R2C: 5.500000:
MTBA: 5.000000
R2C: 0.572625:
R2C: 31.492806:
R2C: 61.230216:
R2C: 6.298561:
MTBA: 5.000000
R2C: 0.547168:
R2C: 64.000000:
R2C: 123.800000:
R2C: 12.800000:
MTBA: 5.000000
R2C: 0.535425:
R2C: 53.333333:
R2C: 103.416667:
R2C: 10.666667:
MTBA: 5.000000
R2C: 0.535801:
R2C: 48.181818:
R2C: 93.636364:
R2C: 9.636364:
MTBA: 5.000000
R2C: 0.545976:
R2C: 45.000000:
R2C: 86.166667:
R2C: 9.000000:
MTBA: 5.000000
R2C: 0.565300:
R2C: 42.222222:
R2C: 79.666667:
R2C: 8.444444:
MTBA: 5.000000
R2C: 0.468706:
R2C: 38.333333:
R2C: 72.888889:
R2C: 7.666667:
MTBA: 5.000000
R2C: 0.582659:
R2C: 35.454545:
R2C: 67.181818:
R2C: 7.090909:
MTBA: 5.000000
R2C: 0.472203:
R2C: 55.000000:
R2C: 105.700000:
R2C: 11.000000:
MTBA: 5.000000
R2C: 0.617132:
R2C: 38.965517:
R2C: 75.172414:
R2C: 7.793103:
MTBA: 5.000000
R2C: 0.598231:
R2C: 47.500000:
R2C: 90.250000:
R2C: 9.500000:
MTBA: 5.000000
R2C: 0.550341:
R2C: 42.027027:
R2C: 81.378378:
R2C: 8.378378:
MTBA: 5.000000
R2C: 0.563470:
R2C: 34.664948:
R2C: 66.544674:
R2C: 6.920962:
MTBA: 2.000000
R2C: -0.364440:
R2C: 47.727273:
R2C: 92.480519:
R2C: 8.974026:
MTBA: 2.000000
R2C: -0.457913:
R2C: 47.500000:
R2C: 89.885714:
R2C: 8.842857:
MTBA: 5.000000
R2C: 0.440293:
R2C: 23.846154:
R2C: 46.038462:
R2C: 4.653846:
MTBA: 5.000000
R2C: 0.096719:
R2C: 28.928571:
R2C: 55.857143:
R2C: 5.464286:
MTBA: 5.000000
R2C: 0.312665:
R2C: 24.833333:
R2C: 48.000000:
R2C: 4.766667:
MTBA: 5.000000
R2C: 0.389334:
R2C: 24.814815:
R2C: 47.777778:
R2C: 4.814815:
MTBA: 5.000000
R2C: 0.580929:
R2C: 21.500000:
R2C: 42.000000:
R2C: 4.266667:
MTBA: 5.000000
R2C: 0.410863:
R2C: 16.346154:
R2C: 32.000000:
R2C: 3.115385:
MTBA: 5.000000
R2C: 0.315607:
R2C: 24.000000:
R2C: 46.433333:
R2C: 4.600000:
MTBA: 5.000000
R2C: 0.645836:
R2C: 17.321429:
R2C: 32.321429:
R2C: 3.464286:
MTBA: 5.000000
R2C: 0.538133:
R2C: 16.111111:
R2C: 30.333333:
R2C: 3.148148:
MTBA: 5.000000
R2C: 0.367270:
R2C: 19.464286:
R2C: 37.464286:
R2C: 3.714286:
MTBA: 5.000000
R2C: 0.443999:
R2C: 21.612903:
R2C: 40.967742:
R2C: 4.193548:
MTBA: 5.000000
R2C: 0.271755:
R2C: 28.956522:
R2C: 56.024348:
R2C: 5.573913:
MTBA: 5.000000
R2C: 0.293278:
R2C: 28.450630:
R2C: 54.887955:
R2C: 5.485294:
MTBA: 5.000000
R2C: 0.195643:
R2C: 24.500000:
R2C: 47.700000:
R2C: 4.633333:
MTBA: 5.000000
R2C: 0.274175:
R2C: 29.029565:
R2C: 56.094261:
R2C: 5.590609:
MTBA: 5.000000
R2C: 0.656482:
R2C: 11.613326:
R2C: 22.444283:
R2C: 2.288333:
MTBA: 5.000000
R2C: 0.790994:
R2C: 11.808266:
R2C: 22.835821:
R2C: 2.357750:
